{
    "results": [
        {
            "itemCode": "RIa4_l98xx4",
            "title": " 《美国达人秀》日本男孩用Matrix Style表演骇客舞 轰动全场 ",
            "tags": "奇趣视频",
            "description": "更多精彩视频 请关注奇趣视频",
            "picUrl": "http://i1.tdimg.com/171/027/514/p.jpg",
            "totalTime": 296930,
            "pubDate": "2013-06-22",
            "ownerId": 105312948,
            "ownerName": null,
            "ownerNickname": null,
            "ownerPic": null,
            "ownerURL": null,
            "channelId": 29,
            "outerPlayerUrl": "http://www.tudou.com/v/RIa4_l98xx4/v.swf",
            "playUrl": "http://www.tudou.com/programs/view/RIa4_l98xx4/",
            "mediaType": "视频",
            "secret": false,
            "hdType": "2,3,5",
            "playTimes": 0,
            "commentCount": 0,
            "bigPicUrl": "http://i1.tdimg.com/171/027/514/w.jpg",
            "alias": "",
            "downEnable": true,
            "location": "",
            "favorCount": 1186,
            "outerGPlayerUrl": "http://www.tudou.com/programs/view/html5embed.action?code=RIa4_l98xx4",
            "digCount": 271,
            "buryCount": 36
        }
    ],
    "page": {
        "pageNo": 1,
        "pageSize": 1,
        "totalCount": 26,
        "endIndex": 1,
        "startIndex": 0,
        "pageCount": 26
    }
}